<svg width="60" height="60" viewBox="0 0 60 60" fill="none" xmlns="http://www.w3.org/2000/svg">
<rect width="60" height="60" rx="10" fill="#FFE6E6"/>
<path fill-rule="evenodd" clip-rule="evenodd" d="M34.3347 20.7502H25.6657C22.6447 20.7502 20.7507 22.8892 20.7507 25.9162V34.0842C20.7507 37.1112 22.6347 39.2502 25.6657 39.2502H34.3337C37.3647 39.2502 39.2507 37.1112 39.2507 34.0842V25.9162C39.2507 22.8892 37.3647 20.7502 34.3347 20.7502Z" stroke="#FF3D00" stroke-width="1.5" stroke-linecap="round" stroke-linejoin="round"/>
<path d="M33.3913 32.0177L30.0003 29.9947V25.6337" stroke="#FF3D00" stroke-width="1.5" stroke-linecap="round" stroke-linejoin="round"/>
</svg>
